[
    "BANAMEX",
    "SERFIN",
    "ATLÁNTICO",
    "CITIBANK",
    "UNIÓN",
    "CONFÍA",
    "BBVA BANCOMER",
    "INDUSTRIAL",
    "SANTANDER",
    "INTERBANCO",
    "BBVA SERVICIOS",
    "HSBC",
    "GE MONEY",
    "SURESTE",
    "CAPITAL",
    "BAJÍO",
    "IXE",
    "INBURSA",
    "INTERACCIONES",
    "MIFEL",
    "SCOTIABANK INVERLAT",
    "PRONORTE",
    "QUADRUM",
    "BANREGIO",
    "INVEX",
    "BANSI",
    "AFIRME",
    "ANÁHUAC",
    "PROMEX",
    "BANORTE/IXE",
    "ORIENTE",
    "BANCEN",
    "CREMI",
    "INVESTA BANK",
    "AMERICAN EXPRESS",
    "SANTANDER",
    "BAMSA",
    "BOSTON",
    "TOKYO",
    "BNP",
    "JP MORGAN",
    "MONEX",
    "VE POR MÁS",
    "BANK ONE",
    "FUJI",
    "ING",
    "NATIONSBANK",
    "REPUBLIC NY",
    "SOCIÉTÉ",
    "DEUTSCHE",
    "Credit Suisse First Boston",
    "AZTECA",
    "AUTOFIN",
    "BARCLAYS",
    "COMPARTAMOS",
    "BANCO FAMSA",
    "BANCO MULTIVA",
    "BM ACTINVER",
    "WAL-MART",
    "INTERCAM BANCO",
    "BANCOPPEL",
    "ABC CAPITAL",
    "UBS BANK",
    "CONSUBANCO",
    "VOLKSWAGEN",
    "CIBANCO",
    "BANK NEW YORK",
    "BM BASE",
    "BICENTENARIO",
    "BANKAOOL",
    "PAGATODO",
    "FORJADORES",
    "INMOBILIARIO",
    "DONDÉ",
    "BANCREA",
    "CHIHUAHUA",
    "FINTERRA",
    "BANK OF CHINA",
    "Bancrecer, S.A.",
    "OBRERO"
]
